<svg width="20" height="20" viewBox="0 0 20 20" fill="none" xmlns="http://www.w3.org/2000/svg">
<path d="M7.56641 6.69043V12.6904M12.0664 6.69043V12.6904M18.8164 9.69043C18.8164 14.661 14.787 18.6904 9.81641 18.6904C4.84584 18.6904 0.816406 14.661 0.816406 9.69043C0.816406 4.71987 4.84584 0.69043 9.81641 0.69043C14.787 0.69043 18.8164 4.71987 18.8164 9.69043Z" stroke="#F87E58" stroke-linecap="round"/>
</svg>
